{
  "$schema": "http://json-schema.org/draft-07/schema#",
  "$id": "report-seeder-schema.json",
  "type": "array",
  "items": {
    "type": "object",
    "additionalProperties": false,
    "required": ["id", "value"],
    "properties": {
      "id": {
        "type": "string"
      },
      "value": {
        "type": "object",
        "additionalProperties": false,
        "required": ["symbol", "url", "selectors"],
        "properties": {
          "symbol": {
            "type": "string"
          },
          "url": {
            "type": "string"
          },
          "selectors": {
            "type": "object"
          }
        }
      }
    }
  }
}
