{
  "$schema": "http://json-schema.org/draft-07/schema#",
  "$id": "text-extractor-schema.json",
  "type": "array",
  "items": {
    "type": "object",
    "additionalProperties": false,
    "required": ["id", "value"],
    "properties": {
      "id": {
        "type": "string"
      },
      "value": {
        "type": "string"
      }
    }
  }
}
