{
  "$schema": "http://json-schema.org/draft-07/schema#",
  "$id": "price-transformer-schema.json",
  "type": "array",
  "items": {
    "type": "object",
    "additionalProperties": false,
    "required": ["id", "value"],
    "properties": {
      "id": {
        "type": "string"
      },
      "value": {
        "type": "object",
        "additionalProperties": false,
        "required": ["symbol", "price", "shares"],
        "properties": {
          "symbol": {
            "type": "string"
          },
          "price": {
            "type": "number"
          },
          "shares": {
            "type": "integer"
          }
        }
      }
    }
  }
}
