{
  "$schema": "http://json-schema.org/draft-07/schema#",
  "$id": "symbol-transformer-schema.json",
  "type": "array",
  "items": {
    "type": "object",
    "additionalProperties": false,
    "required": ["id", "value"],
    "properties": {
      "id": {
        "type": "string"
      },
      "value": {
        "type": "object",
        "additionalProperties": false,
        "required": ["symbol", "url", "name", "geography", "mic"],
        "properties": {
          "symbol": {
            "type": "string"
          },
          "url": {
            "type": "string"
          },
          "name": {
            "type": "string"
          },
          "geography": {
            "type": "string",
            "enum": ["RO", "UK", "US"]
          },
          "mic": {
            "type": "string"
          }
        }
      }
    }
  }
}
